%!PS-Adobe-2.0 EPSF-2.0
%%BoundingBox:  0 0 567 560
%%Title: : ZeroBias, EffCuts
%%Creator: ROOT Version 6.06/01
%%CreationDate: Tue Jul 24 17:49:48 2018
%%DocumentNeededResources: ProcSet (FontSetInit)
%%EndComments
%%BeginProlog
80 dict begin
/s {stroke} def /l {lineto} def /m {moveto} def /t {translate} def
/r {rotate} def /rl {roll}  def /R {repeat} def
/d {rlineto} def /rm {rmoveto} def /gr {grestore} def /f {eofill} def
/c {setrgbcolor} def /black {0 setgray} def /sd {setdash} def
/cl {closepath} def /sf {scalefont setfont} def /lw {setlinewidth} def
/box {m dup 0 exch d exch 0 d 0 exch neg d cl} def
/NC{systemdict begin initclip end}def/C{NC box clip newpath}def
/bl {box s} def /bf {gsave box gsave f grestore 1 lw [] 0 sd s grestore} def /Y { 0 exch d} def /X { 0 d} def 
/K {{pop pop 0 moveto} exch kshow} bind def
/ita {/ang 15 def gsave [1 0 ang dup sin exch cos div 1 0 0] concat} def 
/mp {newpath /y exch def /x exch def} def
/side {[w .77 mul w .23 mul] .385 w mul sd w 0 l currentpoint t -144 r} def
/mr {mp x y w2 0 360 arc} def /m24 {mr s} def /m20 {mr f} def
/mb {mp x y w2 add m w2 neg 0 d 0 w neg d w 0 d 0 w d cl} def
/mt {mp x y w2 add m w2 neg w neg d w 0 d cl} def
/m21 {mb f} def /m25 {mb s} def /m22 {mt f} def /m26{mt s} def
/m23 {mp x y w2 sub m w2 w d w neg 0 d cl f} def
/m27 {mp x y w2 add m w3 neg w2 neg d w3 w2 neg d w3 w2 d cl s} def
/m28 {mp x w2 sub y w2 sub w3 add m w3 0 d  0 w3 neg d w3 0 d 0 w3 d w3 0 d  0 w3 d w3 neg 0 d 0 w3 d w3 neg 0 d 0 w3 neg d w3 neg 0 d cl s } def
/m29 {mp gsave x w2 sub y w2 add w3 sub m currentpoint t 4 {side} repeat cl fill gr} def
/m30 {mp gsave x w2 sub y w2 add w3 sub m currentpoint t 4 {side} repeat cl s gr} def
/m31 {mp x y w2 sub m 0 w d x w2 sub y m w 0 d x w2 sub y w2 add m w w neg d x w2 sub y w2 sub m w w d s} def
/m32 {mp x y w2 sub m w2 w d w neg 0 d cl s} def
/m33 {mp x y w2 add m w3 neg w2 neg d w3 w2 neg d w3 w2 d cl f} def
/m34 {mp x w2 sub y w2 sub w3 add m w3 0 d  0 w3 neg d w3 0 d 0 w3 d w3 0 d  0 w3 d w3 neg 0 d 0 w3 d w3 neg 0 d 0 w3 neg d w3 neg 0 d cl f } def
/m2 {mp x y w2 sub m 0 w d x w2 sub y m w 0 d s} def
/m5 {mp x w2 sub y w2 sub m w w d x w2 sub y w2 add m w w neg d s} def
%%IncludeResource: ProcSet (FontSetInit)
%%IncludeResource: font Times-Roman
%%IncludeResource: font Times-Italic
%%IncludeResource: font Times-Bold
%%IncludeResource: font Times-BoldItalic
%%IncludeResource: font Helvetica
%%IncludeResource: font Helvetica-Oblique
%%IncludeResource: font Helvetica-Bold
%%IncludeResource: font Helvetica-BoldOblique
%%IncludeResource: font Courier
%%IncludeResource: font Courier-Oblique
%%IncludeResource: font Courier-Bold
%%IncludeResource: font Courier-BoldOblique
%%IncludeResource: font Symbol
%%IncludeResource: font ZapfDingbats
/reEncode {exch findfont dup length dict begin {1 index /FID eq  {pop pop} {def} ifelse } forall /Encoding exch def currentdict end dup /FontName get exch definefont pop } def [/Times-Bold /Times-Italic /Times-BoldItalic /Helvetica /Helvetica-Oblique
 /Helvetica-Bold /Helvetica-BoldOblique /Courier /Courier-Oblique /Courier-Bold /Courier-BoldOblique /Times-Roman /AvantGarde-Book /AvantGarde-BookOblique /AvantGarde-Demi /AvantGarde-DemiOblique /Bookman-Demi /Bookman-DemiItalic /Bookman-Light
 /Bookman-LightItalic /Helvetica-Narrow /Helvetica-Narrow-Bold /Helvetica-Narrow-BoldOblique /Helvetica-Narrow-Oblique /NewCenturySchlbk-Roman /NewCenturySchlbk-Bold /NewCenturySchlbk-BoldItalic /NewCenturySchlbk-Italic /Palatino-Bold
 /Palatino-BoldItalic /Palatino-Italic /Palatino-Roman ] {ISOLatin1Encoding reEncode } forall
%%EndProlog
%%BeginSetup
%%EndSetup
newpath  gsave  .25 .25 scale  gsave  0 0 t black[  ] 0 sd 3 lw 1 1 1 c 2268 2238 0 0 bf black 6 lw 1 1 1 c black 1858 1850 335 222 bl 1858 1850 335 222 bl 1 1 1 c black 1858 1850 335 222 bl 1858 1850 335 222 bl 3 lw 335 222 m 1858 X s[ 4 8] 0 sd 335
 2072 m -1850 Y s 644 2072 m -1850 Y s 954 2072 m -1850 Y s 1264 2072 m -1850 Y s 1574 2072 m -1850 Y s 1884 2072 m -1850 Y s 2193 2072 m -1850 Y s[  ] 0 sd 335 2072 m 1858 X s 335 222 m 1850 Y s[ 4 8] 0 sd 2193 222 m -1858 X s 2193 407 m -1858 X s
 2193 592 m -1858 X s 2193 777 m -1858 X s 2193 962 m -1858 X s 2193 1147 m -1858 X s 2193 1332 m -1858 X s 2193 1517 m -1858 X s 2193 1702 m -1858 X s 2193 1887 m -1858 X s 2193 2072 m -1858 X s[  ] 0 sd 2193 222 m 1850 Y s 335 222 m 1858 X s
 gsave  2268 2238 0 0 C 1400.65 44.465 t 0 r /Helvetica findfont 111.163 sf 0 0 m (Average Pile\255up) show NC gr  335 277 m -55 Y s 397 249 m -27 Y s 459 249 m -27 Y s 520 249 m -27 Y s 582 249 m -27 Y s 644 277 m -55 Y s 706 249 m -27 Y s 768 249 m
 -27 Y s 830 249 m -27 Y s 892 249 m -27 Y s 954 277 m -55 Y s 1016 249 m -27 Y s 1078 249 m -27 Y s 1140 249 m -27 Y s 1202 249 m -27 Y s 1264 277 m -55 Y s 1326 249 m -27 Y s 1388 249 m -27 Y s 1450 249 m -27 Y s 1512 249 m -27 Y s 1574 277 m -55 Y
 s 1636 249 m -27 Y s 1698 249 m -27 Y s 1760 249 m -27 Y s 1822 249 m -27 Y s 1884 277 m -55 Y s 1946 249 m -27 Y s 2007 249 m -27 Y s 2069 249 m -27 Y s 2131 249 m -27 Y s 2193 277 m -55 Y s
 gsave  2268 2238 0 0 C 311.255 148.217 t 0 r /Helvetica findfont 74.1084 sf 0 0 m (0) show NC gr 
 gsave  2268 2238 0 0 C 600.278 148.217 t 0 r /Helvetica findfont 74.1084 sf 0 0 m (10) show NC gr 
 gsave  2268 2238 0 0 C 911.533 148.217 t 0 r /Helvetica findfont 74.1084 sf 0 0 m (20) show NC gr 
 gsave  2268 2238 0 0 C 1222.79 148.217 t 0 r /Helvetica findfont 74.1084 sf 0 0 m (30) show NC gr 
 gsave  2268 2238 0 0 C 1530.34 148.217 t 0 r /Helvetica findfont 74.1084 sf 0 0 m (40) show NC gr 
 gsave  2268 2238 0 0 C 1841.59 148.217 t 0 r /Helvetica findfont 74.1084 sf 0 0 m (50) show NC gr 
 gsave  2268 2238 0 0 C 2149.14 148.217 t 0 r /Helvetica findfont 74.1084 sf 0 0 m (60) show NC gr  335 2072 m 1858 X s 335 2017 m 55 Y s 397 2044 m 28 Y s 459 2044 m 28 Y s 520 2044 m 28 Y s 582 2044 m 28 Y s 644 2017 m 55 Y s 706 2044 m 28 Y s 768
 2044 m 28 Y s 830 2044 m 28 Y s 892 2044 m 28 Y s 954 2017 m 55 Y s 1016 2044 m 28 Y s 1078 2044 m 28 Y s 1140 2044 m 28 Y s 1202 2044 m 28 Y s 1264 2017 m 55 Y s 1326 2044 m 28 Y s 1388 2044 m 28 Y s 1450 2044 m 28 Y s 1512 2044 m 28 Y s 1574 2017
 m 55 Y s 1636 2044 m 28 Y s 1698 2044 m 28 Y s 1760 2044 m 28 Y s 1822 2044 m 28 Y s 1884 2017 m 55 Y s 1946 2044 m 28 Y s 2007 2044 m 28 Y s 2069 2044 m 28 Y s 2131 2044 m 28 Y s 2193 2017 m 55 Y s 335 222 m 1850 Y s
 gsave  2268 2238 0 0 C 103.752 1434 t 90 r /Helvetica findfont 111.163 sf 0 0 m (Hit Efficiency) show NC gr  391 222 m -56 X s 363 259 m -28 X s 363 296 m -28 X s 363 333 m -28 X s 363 370 m -28 X s 391 407 m -56 X s 363 444 m -28 X s 363 481 m -28
 X s 363 518 m -28 X s 363 555 m -28 X s 391 592 m -56 X s 363 629 m -28 X s 363 666 m -28 X s 363 703 m -28 X s 363 740 m -28 X s 391 777 m -56 X s 363 814 m -28 X s 363 851 m -28 X s 363 888 m -28 X s 363 925 m -28 X s 391 962 m -56 X s 363 999 m
 -28 X s 363 1036 m -28 X s 363 1073 m -28 X s 363 1110 m -28 X s 391 1147 m -56 X s 363 1184 m -28 X s 363 1221 m -28 X s 363 1258 m -28 X s 363 1295 m -28 X s 391 1332 m -56 X s 363 1369 m -28 X s 363 1406 m -28 X s 363 1443 m -28 X s 363 1480 m
 -28 X s 391 1517 m -56 X s 363 1554 m -28 X s 363 1591 m -28 X s 363 1628 m -28 X s 363 1665 m -28 X s 391 1702 m -56 X s 363 1739 m -28 X s 363 1776 m -28 X s 363 1813 m -28 X s 363 1850 m -28 X s 391 1887 m -56 X s 363 1924 m -28 X s 363 1961 m
 -28 X s 363 1998 m -28 X s 363 2035 m -28 X s 391 2072 m -56 X s
 gsave  2268 2238 0 0 C 177.86 192.682 t 0 r /Helvetica findfont 74.1084 sf 0 0 m (0.90) show NC gr 
 gsave  2268 2238 0 0 C 192.682 377.953 t 0 r /Helvetica findfont 74.1084 sf 0 0 m (0.91) show NC gr 
 gsave  2268 2238 0 0 C 177.86 563.224 t 0 r /Helvetica findfont 74.1084 sf 0 0 m (0.92) show NC gr 
 gsave  2268 2238 0 0 C 177.86 748.495 t 0 r /Helvetica findfont 74.1084 sf 0 0 m (0.93) show NC gr 
 gsave  2268 2238 0 0 C 177.86 933.766 t 0 r /Helvetica findfont 74.1084 sf 0 0 m (0.94) show NC gr 
 gsave  2268 2238 0 0 C 177.86 1119.04 t 0 r /Helvetica findfont 74.1084 sf 0 0 m (0.95) show NC gr 
 gsave  2268 2238 0 0 C 177.86 1304.31 t 0 r /Helvetica findfont 74.1084 sf 0 0 m (0.96) show NC gr 
 gsave  2268 2238 0 0 C 177.86 1489.58 t 0 r /Helvetica findfont 74.1084 sf 0 0 m (0.97) show NC gr 
 gsave  2268 2238 0 0 C 177.86 1674.85 t 0 r /Helvetica findfont 74.1084 sf 0 0 m (0.98) show NC gr 
 gsave  2268 2238 0 0 C 177.86 1860.12 t 0 r /Helvetica findfont 74.1084 sf 0 0 m (0.99) show NC gr 
 gsave  2268 2238 0 0 C 177.86 2045.39 t 0 r /Helvetica findfont 74.1084 sf 0 0 m (1.00) show NC gr  2193 222 m 1850 Y s 2137 222 m 56 X s 2165 259 m 28 X s 2165 296 m 28 X s 2165 333 m 28 X s 2165 370 m 28 X s 2137 407 m 56 X s 2165 444 m 28 X s
 2165 481 m 28 X s 2165 518 m 28 X s 2165 555 m 28 X s 2137 592 m 56 X s 2165 629 m 28 X s 2165 666 m 28 X s 2165 703 m 28 X s 2165 740 m 28 X s 2137 777 m 56 X s 2165 814 m 28 X s 2165 851 m 28 X s 2165 888 m 28 X s 2165 925 m 28 X s 2137 962 m 56 X
 s 2165 999 m 28 X s 2165 1036 m 28 X s 2165 1073 m 28 X s 2165 1110 m 28 X s 2137 1147 m 56 X s 2165 1184 m 28 X s 2165 1221 m 28 X s 2165 1258 m 28 X s 2165 1295 m 28 X s 2137 1332 m 56 X s 2165 1369 m 28 X s 2165 1406 m 28 X s 2165 1443 m 28 X s
 2165 1480 m 28 X s 2137 1517 m 56 X s 2165 1554 m 28 X s 2165 1591 m 28 X s 2165 1628 m 28 X s 2165 1665 m 28 X s 2137 1702 m 56 X s 2165 1739 m 28 X s 2165 1776 m 28 X s 2165 1813 m 28 X s 2165 1850 m 28 X s 2137 1887 m 56 X s 2165 1924 m 28 X s
 2165 1961 m 28 X s 2165 1998 m 28 X s 2165 2035 m 28 X s 2137 2072 m 56 X s 0.8 0 0 c 6 lw black 0.8 0 0 c 3 lw /w 30 def /w2 {w 2 div} def /w3 {w 3 div} def 366 2036 428 1954 489 1938 551 1966 613 2047 675 2025 737 1910 799 2023 861 1989 923 1989
 985 1987 1047 1976 1109 1980 1171 1971 1233 1975 1295 1951 1357 1950 1419 1948 1481 1933 1543 1909 1605 1888 1667 1836 1729 1784 1791 1773 1853 1731 1915 1676 1977 1636 2038 1607 28 { m20} R 6 lw 351 2036 m -16 X s 335 2029 m 15 Y s 380 2036 m 17 X
 s 397 2029 m 15 Y s 366 2051 m 1 Y s 358 2052 m 15 X s 366 2021 m -12 Y s 358 2009 m 15 X s 413 1954 m -16 X s 397 1946 m 15 Y s 442 1954 m 17 X s 459 1946 m 15 Y s 475 1938 m -16 X s 459 1930 m 15 Y s 504 1938 m 16 X s 520 1930 m 15 Y s 489 1923 m
 -2 Y s 482 1921 m 15 X s 537 1966 m -17 X s 520 1959 m 14 Y s 566 1966 m 16 X s 582 1959 m 14 Y s 551 1981 m 5 Y s 544 1986 m 15 X s 551 1951 m -9 Y s 544 1942 m 15 X s 599 2047 m -17 X s 582 2040 m 15 Y s 628 2047 m 16 X s 644 2040 m 15 Y s 613
 2062 m s 606 2062 m 15 X s 613 2032 m -24 Y s 606 2008 m 15 X s 661 2025 m -17 X s 644 2017 m 15 Y s 690 2025 m 16 X s 706 2017 m 15 Y s 675 2010 m -1 Y s 668 2009 m 15 X s 722 1910 m -16 X s 706 1902 m 15 Y s 752 1910 m 16 X s 768 1902 m 15 Y s 737
 1924 m 14 Y s 730 1938 m 15 X s 737 1895 m -20 Y s 730 1875 m 15 X s 784 2023 m -16 X s 768 2015 m 15 Y s 814 2023 m 16 X s 830 2015 m 15 Y s 799 2008 m -3 Y s 792 2005 m 15 X s 846 1989 m -16 X s 830 1981 m 15 Y s 876 1989 m 16 X s 892 1981 m 15 Y
 s 908 1989 m -16 X s 892 1982 m 15 Y s 938 1989 m 16 X s 954 1982 m 15 Y s 970 1987 m -16 X s 954 1979 m 15 Y s 1000 1987 m 16 X s 1016 1979 m 15 Y s 1032 1976 m -16 X s 1016 1969 m 15 Y s 1062 1976 m 16 X s 1078 1969 m 15 Y s 1094 1980 m -16 X s
 1078 1973 m 14 Y s 1124 1980 m 16 X s 1140 1973 m 14 Y s 1156 1971 m -16 X s 1140 1963 m 15 Y s 1186 1971 m 16 X s 1202 1963 m 15 Y s 1218 1975 m -16 X s 1202 1968 m 14 Y s 1248 1975 m 16 X s 1264 1968 m 14 Y s 1280 1951 m -16 X s 1264 1944 m 15 Y s
 1310 1951 m 16 X s 1326 1944 m 15 Y s 1342 1950 m -16 X s 1326 1943 m 15 Y s 1372 1950 m 16 X s 1388 1943 m 15 Y s 1404 1948 m -16 X s 1388 1941 m 14 Y s 1434 1948 m 16 X s 1450 1941 m 14 Y s 1466 1933 m -16 X s 1450 1926 m 15 Y s 1496 1933 m 16 X s
 1512 1926 m 15 Y s 1528 1909 m -16 X s 1512 1901 m 15 Y s 1558 1909 m 16 X s 1574 1901 m 15 Y s 1590 1888 m -16 X s 1574 1880 m 15 Y s 1620 1888 m 16 X s 1636 1880 m 15 Y s 1652 1836 m -16 X s 1636 1829 m 15 Y s 1682 1836 m 16 X s 1698 1829 m 15 Y s
 1714 1784 m -16 X s 1698 1777 m 15 Y s 1743 1784 m 17 X s 1760 1777 m 15 Y s 1776 1773 m -16 X s 1760 1766 m 15 Y s 1805 1773 m 17 X s 1822 1766 m 15 Y s 1838 1731 m -16 X s 1822 1724 m 14 Y s 1867 1731 m 17 X s 1884 1724 m 14 Y s 1900 1676 m -16 X
 s 1884 1668 m 15 Y s 1929 1676 m 17 X s 1946 1668 m 15 Y s 1962 1636 m -16 X s 1946 1629 m 15 Y s 1991 1636 m 16 X s 2007 1629 m 15 Y s 2024 1607 m -17 X s 2007 1600 m 15 Y s 2053 1607 m 16 X s 2069 1600 m 15 Y s 0.6 0 0.6 c 351 2020 m -16 X s 335
 2012 m 15 Y s 380 2020 m 17 X s 397 2012 m 15 Y s 366 2035 m 11 Y s 358 2046 m 15 X s 366 2005 m -37 Y s 358 1968 m 15 X s 413 2010 m -16 X s 397 2002 m 15 Y s 442 2010 m 17 X s 459 2002 m 15 Y s 428 1995 m -2 Y s 420 1993 m 15 X s 475 2002 m -16 X
 s 459 1995 m 14 Y s 504 2002 m 16 X s 520 1995 m 14 Y s 489 1987 m -3 Y s 482 1984 m 15 X s 537 2041 m -17 X s 520 2034 m 14 Y s 566 2041 m 16 X s 582 2034 m 14 Y s 551 2026 m -8 Y s 544 2018 m 15 X s 599 2019 m -17 X s 582 2012 m 15 Y s 628 2019 m
 16 X s 644 2012 m 15 Y s 613 2034 m 18 Y s 606 2052 m 15 X s 613 2005 m -70 Y s 606 1935 m 15 X s 661 2029 m -17 X s 644 2021 m 15 Y s 690 2029 m 16 X s 706 2021 m 15 Y s 675 2044 m s 668 2044 m 15 X s 675 2014 m -9 Y s 668 2005 m 15 X s 722 1991 m
 -16 X s 706 1983 m 15 Y s 752 1991 m 16 X s 768 1983 m 15 Y s 737 2006 m 12 Y s 730 2018 m 15 X s 737 1976 m -25 Y s 730 1951 m 15 X s 784 2039 m -16 X s 768 2032 m 15 Y s 814 2039 m 16 X s 830 2032 m 15 Y s 799 2024 m -10 Y s 792 2014 m 15 X s 846
 1986 m -16 X s 830 1979 m 15 Y s 876 1986 m 16 X s 892 1979 m 15 Y s 908 1992 m -16 X s 892 1985 m 15 Y s 938 1992 m 16 X s 954 1985 m 15 Y s 970 1989 m -16 X s 954 1981 m 15 Y s 1000 1989 m 16 X s 1016 1981 m 15 Y s 1032 1986 m -16 X s 1016 1979 m
 15 Y s 1062 1986 m 16 X s 1078 1979 m 15 Y s 1094 1975 m -16 X s 1078 1968 m 15 Y s 1124 1975 m 16 X s 1140 1968 m 15 Y s 1156 1965 m -16 X s 1140 1958 m 14 Y s 1186 1965 m 16 X s 1202 1958 m 14 Y s 1218 1970 m -16 X s 1202 1963 m 15 Y s 1248 1970 m
 16 X s 1264 1963 m 15 Y s 1280 1956 m -16 X s 1264 1949 m 15 Y s 1310 1956 m 16 X s 1326 1949 m 15 Y s 1342 1956 m -16 X s 1326 1948 m 15 Y s 1372 1956 m 16 X s 1388 1948 m 15 Y s 1404 1941 m -16 X s 1388 1933 m 15 Y s 1434 1941 m 16 X s 1450 1933 m
 15 Y s 1466 1933 m -16 X s 1450 1925 m 15 Y s 1496 1933 m 16 X s 1512 1925 m 15 Y s 1528 1938 m -16 X s 1512 1930 m 15 Y s 1558 1938 m 16 X s 1574 1930 m 15 Y s 1590 1936 m -16 X s 1574 1928 m 15 Y s 1620 1936 m 16 X s 1636 1928 m 15 Y s 1652 1930 m
 -16 X s 1636 1923 m 15 Y s 1682 1930 m 16 X s 1698 1923 m 15 Y s 1714 1925 m -16 X s 1698 1917 m 15 Y s 1743 1925 m 17 X s 1760 1917 m 15 Y s 1776 1916 m -16 X s 1760 1909 m 15 Y s 1805 1916 m 17 X s 1822 1909 m 15 Y s 1838 1882 m -16 X s 1822 1875
 m 15 Y s 1867 1882 m 17 X s 1884 1875 m 15 Y s 1900 1872 m -16 X s 1884 1864 m 15 Y s 1929 1872 m 17 X s 1946 1864 m 15 Y s 1962 1887 m -16 X s 1946 1879 m 15 Y s 1991 1887 m 16 X s 2007 1879 m 15 Y s 2024 1888 m -17 X s 2007 1880 m 15 Y s 2053 1888
 m 16 X s 2069 1880 m 15 Y s black 0.6 0 0.6 c 3 lw 366 2020 428 2010 489 2002 551 2041 613 2019 675 2029 737 1991 799 2039 861 1986 923 1992 985 1989 1047 1986 1109 1975 1171 1965 1233 1970 1295 1956 1357 1956 1419 1941 1481 1933 1543 1938 1605 1936
 1667 1930 1729 1925 1791 1916 1853 1882 1915 1872 1977 1887 2038 1888 28 { m21} R 6 lw 0 0 0.8 c 357 2003 m -22 X s 335 1996 m 14 Y s 374 2003 m 23 X s 397 1996 m 14 Y s 366 2018 m 19 Y s 358 2037 m 15 X s 366 1988 m -53 Y s 358 1935 m 15 X s 419
 2049 m -22 X s 397 2042 m 15 Y s 436 2049 m 23 X s 459 2042 m 15 Y s 481 2047 m -22 X s 459 2039 m 15 Y s 498 2047 m 22 X s 520 2039 m 15 Y s 543 2045 m -23 X s 520 2038 m 15 Y s 560 2045 m 22 X s 582 2038 m 15 Y s 551 2030 m -11 Y s 544 2019 m 15 X
 s 605 2072 m -23 X s 582 2064 m 8 Y s 622 2072 m 22 X s 644 2064 m 8 Y s 613 2057 m -57 Y s 606 2000 m 15 X s 666 2016 m -22 X s 644 2008 m 15 Y s 684 2016 m 22 X s 706 2008 m 15 Y s 675 2030 m 6 Y s 668 2036 m 15 X s 675 2001 m -17 Y s 668 1984 m
 15 X s 728 2072 m -22 X s 706 2064 m 8 Y s 746 2072 m 22 X s 768 2064 m 8 Y s 737 2057 m -3 Y s 730 2054 m 15 X s 790 2043 m -22 X s 768 2036 m 15 Y s 808 2043 m 22 X s 830 2036 m 15 Y s 799 2028 m -13 Y s 792 2015 m 15 X s 852 2029 m -22 X s 830
 2021 m 15 Y s 870 2029 m 22 X s 892 2021 m 15 Y s 914 2027 m -22 X s 892 2020 m 15 Y s 932 2027 m 22 X s 954 2020 m 15 Y s 976 2025 m -22 X s 954 2018 m 15 Y s 994 2025 m 22 X s 1016 2018 m 15 Y s 1038 2023 m -22 X s 1016 2016 m 14 Y s 1056 2023 m
 22 X s 1078 2016 m 14 Y s 1100 2022 m -22 X s 1078 2014 m 15 Y s 1118 2022 m 22 X s 1140 2014 m 15 Y s 1162 2016 m -22 X s 1140 2008 m 15 Y s 1180 2016 m 22 X s 1202 2008 m 15 Y s 1224 2018 m -22 X s 1202 2010 m 15 Y s 1242 2018 m 22 X s 1264 2010 m
 15 Y s 1286 2008 m -22 X s 1264 2000 m 15 Y s 1304 2008 m 22 X s 1326 2000 m 15 Y s 1348 2007 m -22 X s 1326 1999 m 15 Y s 1366 2007 m 22 X s 1388 1999 m 15 Y s 1410 2002 m -22 X s 1388 1995 m 15 Y s 1428 2002 m 22 X s 1450 1995 m 15 Y s 1472 1997 m
 -22 X s 1450 1990 m 15 Y s 1490 1997 m 22 X s 1512 1990 m 15 Y s 1534 2002 m -22 X s 1512 1995 m 15 Y s 1552 2002 m 22 X s 1574 1995 m 15 Y s 1596 2002 m -22 X s 1574 1994 m 15 Y s 1614 2002 m 22 X s 1636 1994 m 15 Y s 1658 1998 m -22 X s 1636 1991
 m 15 Y s 1676 1998 m 22 X s 1698 1991 m 15 Y s 1720 1999 m -22 X s 1698 1991 m 15 Y s 1738 1999 m 22 X s 1760 1991 m 15 Y s 1782 1998 m -22 X s 1760 1991 m 15 Y s 1800 1998 m 22 X s 1822 1991 m 15 Y s 1844 1988 m -22 X s 1822 1980 m 15 Y s 1861 1988
 m 23 X s 1884 1980 m 15 Y s 1906 1969 m -22 X s 1884 1962 m 15 Y s 1923 1969 m 23 X s 1946 1962 m 15 Y s 1968 1986 m -22 X s 1946 1979 m 15 Y s 1985 1986 m 22 X s 2007 1979 m 15 Y s 2030 1998 m -23 X s 2007 1991 m 14 Y s 2047 1998 m 22 X s 2069 1991
 m 14 Y s black 0 0 0.8 c 3 lw 366 2003 428 2049 489 2047 551 2045 613 2072 675 2016 737 2072 799 2043 861 2029 923 2027 985 2025 1047 2023 1109 2022 1171 2016 1233 2018 1295 2008 1357 2007 1419 2002 1481 1997 1543 2002 1605 2002 1667 1998 1729 1999
 1791 1998 1853 1988 1915 1969 1977 1986 2038 1998 28 { m22} R 6 lw 0 0.6 0.6 c 357 2072 m -22 X s 335 2064 m 8 Y s 374 2072 m 23 X s 397 2064 m 8 Y s 366 2057 m -26 Y s 358 2031 m 15 X s 419 2051 m -22 X s 397 2043 m 15 Y s 436 2051 m 23 X s 459
 2043 m 15 Y s 481 2007 m -22 X s 459 2000 m 14 Y s 498 2007 m 22 X s 520 2000 m 14 Y s 489 2022 m 2 Y s 482 2024 m 15 X s 489 1992 m -8 Y s 482 1984 m 15 X s 543 1998 m -23 X s 520 1990 m 15 Y s 560 1998 m 22 X s 582 1990 m 15 Y s 551 2012 m 12 Y s
 544 2024 m 15 X s 551 1983 m -26 Y s 544 1957 m 15 X s 605 2072 m -23 X s 582 2064 m 8 Y s 622 2072 m 22 X s 644 2064 m 8 Y s 613 2057 m -65 Y s 606 1992 m 15 X s 666 2020 m -22 X s 644 2012 m 15 Y s 684 2020 m 22 X s 706 2012 m 15 Y s 675 2035 m 5
 Y s 668 2040 m 15 X s 675 2005 m -18 Y s 668 1987 m 15 X s 728 2052 m -22 X s 706 2044 m 15 Y s 746 2052 m 22 X s 768 2044 m 15 Y s 737 2037 m -17 Y s 730 2020 m 15 X s 790 2007 m -22 X s 768 2000 m 15 Y s 808 2007 m 22 X s 830 2000 m 15 Y s 799
 2022 m 10 Y s 792 2032 m 15 X s 799 1993 m -27 Y s 792 1966 m 15 X s 852 2048 m -22 X s 830 2041 m 15 Y s 870 2048 m 22 X s 892 2041 m 15 Y s 914 2040 m -22 X s 892 2033 m 14 Y s 932 2040 m 22 X s 954 2033 m 14 Y s 976 2033 m -22 X s 954 2026 m 15 Y
 s 994 2033 m 22 X s 1016 2026 m 15 Y s 1038 2035 m -22 X s 1016 2027 m 15 Y s 1056 2035 m 22 X s 1078 2027 m 15 Y s 1100 2029 m -22 X s 1078 2021 m 15 Y s 1118 2029 m 22 X s 1140 2021 m 15 Y s 1162 2033 m -22 X s 1140 2026 m 15 Y s 1180 2033 m 22 X
 s 1202 2026 m 15 Y s 1224 2031 m -22 X s 1202 2023 m 15 Y s 1242 2031 m 22 X s 1264 2023 m 15 Y s 1286 2029 m -22 X s 1264 2021 m 15 Y s 1304 2029 m 22 X s 1326 2021 m 15 Y s 1348 2031 m -22 X s 1326 2024 m 14 Y s 1366 2031 m 22 X s 1388 2024 m 14 Y
 s 1410 2025 m -22 X s 1388 2017 m 15 Y s 1428 2025 m 22 X s 1450 2017 m 15 Y s 1472 2022 m -22 X s 1450 2015 m 14 Y s 1490 2022 m 22 X s 1512 2015 m 14 Y s 1534 2019 m -22 X s 1512 2012 m 14 Y s 1552 2019 m 22 X s 1574 2012 m 14 Y s 1596 2022 m -22
 X s 1574 2015 m 15 Y s 1614 2022 m 22 X s 1636 2015 m 15 Y s 1658 2025 m -22 X s 1636 2017 m 15 Y s 1676 2025 m 22 X s 1698 2017 m 15 Y s 1720 2020 m -22 X s 1698 2013 m 15 Y s 1738 2020 m 22 X s 1760 2013 m 15 Y s 1782 2019 m -22 X s 1760 2011 m 15
 Y s 1800 2019 m 22 X s 1822 2011 m 15 Y s 1844 2016 m -22 X s 1822 2008 m 15 Y s 1861 2016 m 23 X s 1884 2008 m 15 Y s 1906 2000 m -22 X s 1884 1993 m 15 Y s 1923 2000 m 23 X s 1946 1993 m 15 Y s 1968 1988 m -22 X s 1946 1980 m 15 Y s 1985 1988 m 22
 X s 2007 1980 m 15 Y s 2030 1969 m -23 X s 2007 1962 m 15 Y s 2047 1969 m 22 X s 2069 1962 m 15 Y s black 0 0.6 0.6 c 3 lw 366 2072 428 2051 489 2007 551 1998 613 2072 675 2020 737 2052 799 2007 861 2048 923 2040 985 2033 1047 2035 1109 2029 1171
 2033 1233 2031 1295 2029 1357 2031 1419 2025 1481 2022 1543 2019 1605 2022 1667 2025 1729 2020 1791 2019 1853 2016 1915 2000 1977 1988 2038 1969 28 { m23} R 6 lw 0.8 0.6 0 c 357 2072 m -22 X s 335 2064 m 8 Y s 374 2072 m 23 X s 397 2064 m 8 Y s 366
 2064 m -40 Y s 358 2024 m 15 X s 419 2025 m -22 X s 397 2018 m 15 Y s 436 2025 m 23 X s 459 2018 m 15 Y s 428 2033 m 7 Y s 420 2040 m 15 X s 428 2018 m -14 Y s 420 2004 m 15 X s 481 2018 m -22 X s 459 2011 m 15 Y s 498 2018 m 22 X s 520 2011 m 15 Y
 s 489 2026 m 9 Y s 482 2035 m 15 X s 489 2011 m -17 Y s 482 1994 m 15 X s 543 2072 m -23 X s 520 2064 m 8 Y s 560 2072 m 22 X s 582 2064 m 8 Y s 551 2064 m -13 Y s 544 2051 m 15 X s 605 2072 m -23 X s 582 2064 m 8 Y s 622 2072 m 22 X s 644 2064 m 8
 Y s 613 2064 m -96 Y s 606 1968 m 15 X s 666 2037 m -22 X s 644 2030 m 15 Y s 684 2037 m 22 X s 706 2030 m 15 Y s 675 2045 m 9 Y s 668 2054 m 15 X s 675 2030 m -27 Y s 668 2003 m 15 X s 728 2072 m -22 X s 706 2064 m 8 Y s 746 2072 m 22 X s 768 2064
 m 8 Y s 737 2064 m -18 Y s 730 2046 m 15 X s 790 2072 m -22 X s 768 2064 m 8 Y s 808 2072 m 22 X s 830 2064 m 8 Y s 799 2064 m -15 Y s 792 2049 m 15 X s 852 2038 m -22 X s 830 2030 m 15 Y s 870 2038 m 22 X s 892 2030 m 15 Y s 914 2031 m -22 X s 892
 2024 m 15 Y s 932 2031 m 22 X s 954 2024 m 15 Y s 976 2025 m -22 X s 954 2017 m 15 Y s 994 2025 m 22 X s 1016 2017 m 15 Y s 1038 2025 m -22 X s 1016 2017 m 15 Y s 1056 2025 m 22 X s 1078 2017 m 15 Y s 1100 2021 m -22 X s 1078 2013 m 15 Y s 1118 2021
 m 22 X s 1140 2013 m 15 Y s 1162 2011 m -22 X s 1140 2004 m 15 Y s 1180 2011 m 22 X s 1202 2004 m 15 Y s 1224 2016 m -22 X s 1202 2008 m 15 Y s 1242 2016 m 22 X s 1264 2008 m 15 Y s 1286 2006 m -22 X s 1264 1998 m 15 Y s 1304 2006 m 22 X s 1326 1998
 m 15 Y s 1348 2002 m -22 X s 1326 1994 m 15 Y s 1366 2002 m 22 X s 1388 1994 m 15 Y s 1410 1998 m -22 X s 1388 1990 m 15 Y s 1428 1998 m 22 X s 1450 1990 m 15 Y s 1472 1989 m -22 X s 1450 1981 m 15 Y s 1490 1989 m 22 X s 1512 1981 m 15 Y s 1534 1992
 m -22 X s 1512 1984 m 15 Y s 1552 1992 m 22 X s 1574 1984 m 15 Y s 1596 1996 m -22 X s 1574 1988 m 15 Y s 1614 1996 m 22 X s 1636 1988 m 15 Y s 1658 1994 m -22 X s 1636 1986 m 15 Y s 1676 1994 m 22 X s 1698 1986 m 15 Y s 1720 1985 m -22 X s 1698
 1977 m 15 Y s 1738 1985 m 22 X s 1760 1977 m 15 Y s 1782 1981 m -22 X s 1760 1974 m 15 Y s 1800 1981 m 22 X s 1822 1974 m 15 Y s 1844 1956 m -22 X s 1822 1948 m 15 Y s 1861 1956 m 23 X s 1884 1948 m 15 Y s 1906 1935 m -22 X s 1884 1927 m 15 Y s 1923
 1935 m 23 X s 1946 1927 m 15 Y s 1968 1971 m -22 X s 1946 1964 m 14 Y s 1985 1971 m 22 X s 2007 1964 m 14 Y s 2030 1967 m -23 X s 2007 1960 m 15 Y s 2047 1967 m 22 X s 2069 1960 m 15 Y s 2038 1975 m 3 Y s 2031 1978 m 15 X s 2038 1960 m -4 Y s 2031
 1956 m 15 X s black 0.8 0.6 0 c 3 lw 366 2072 428 2025 489 2018 551 2072 613 2072 675 2037 737 2072 799 2072 861 2038 923 2031 985 2025 1047 2025 1109 2021 1171 2011 1233 2016 1295 2006 1357 2002 1419 1998 1481 1989 1543 1992 1605 1996 1667 1994
 1729 1985 1791 1981 1853 1956 1915 1935 1977 1971 2038 1967 28 { m29} R 6 lw 0.6 0.6 0 c 351 2072 m -16 X s 335 2064 m 8 Y s 380 2072 m 17 X s 397 2064 m 8 Y s 366 2057 m -39 Y s 358 2018 m 15 X s 413 2049 m -16 X s 397 2042 m 15 Y s 442 2049 m 17 X
 s 459 2042 m 15 Y s 428 2035 m -2 Y s 420 2033 m 15 X s 475 2046 m -16 X s 459 2039 m 15 Y s 504 2046 m 16 X s 520 2039 m 15 Y s 489 2031 m -4 Y s 482 2027 m 15 X s 537 2072 m -17 X s 520 2064 m 8 Y s 566 2072 m 16 X s 582 2064 m 8 Y s 551 2057 m -7
 Y s 544 2050 m 15 X s 599 2072 m -17 X s 582 2064 m 8 Y s 628 2072 m 16 X s 644 2064 m 8 Y s 613 2057 m -95 Y s 606 1962 m 15 X s 661 2034 m -17 X s 644 2027 m 14 Y s 690 2034 m 16 X s 706 2027 m 14 Y s 675 2049 m 4 Y s 668 2053 m 15 X s 675 2019 m
 -22 Y s 668 1997 m 15 X s 722 2043 m -16 X s 706 2036 m 15 Y s 752 2043 m 16 X s 768 2036 m 15 Y s 737 2058 m 3 Y s 730 2061 m 15 X s 737 2028 m -30 Y s 730 1998 m 15 X s 784 2047 m -16 X s 768 2040 m 15 Y s 814 2047 m 16 X s 830 2040 m 15 Y s 799
 2062 m s 792 2062 m 15 X s 799 2032 m -24 Y s 792 2008 m 15 X s 846 2035 m -16 X s 830 2028 m 15 Y s 876 2035 m 16 X s 892 2028 m 15 Y s 908 2038 m -16 X s 892 2030 m 15 Y s 938 2038 m 16 X s 954 2030 m 15 Y s 970 2035 m -16 X s 954 2028 m 15 Y s
 1000 2035 m 16 X s 1016 2028 m 15 Y s 1032 2030 m -16 X s 1016 2023 m 15 Y s 1062 2030 m 16 X s 1078 2023 m 15 Y s 1094 2022 m -16 X s 1078 2015 m 14 Y s 1124 2022 m 16 X s 1140 2015 m 14 Y s 1156 2022 m -16 X s 1140 2015 m 15 Y s 1186 2022 m 16 X s
 1202 2015 m 15 Y s 1218 2022 m -16 X s 1202 2014 m 15 Y s 1248 2022 m 16 X s 1264 2014 m 15 Y s 1280 2014 m -16 X s 1264 2007 m 15 Y s 1310 2014 m 16 X s 1326 2007 m 15 Y s 1342 2016 m -16 X s 1326 2009 m 15 Y s 1372 2016 m 16 X s 1388 2009 m 15 Y s
 1404 2006 m -16 X s 1388 1999 m 15 Y s 1434 2006 m 16 X s 1450 1999 m 15 Y s 1466 2003 m -16 X s 1450 1995 m 15 Y s 1496 2003 m 16 X s 1512 1995 m 15 Y s 1528 2007 m -16 X s 1512 2000 m 15 Y s 1558 2007 m 16 X s 1574 2000 m 15 Y s 1590 2003 m -16 X
 s 1574 1995 m 15 Y s 1620 2003 m 16 X s 1636 1995 m 15 Y s 1652 2000 m -16 X s 1636 1993 m 15 Y s 1682 2000 m 16 X s 1698 1993 m 15 Y s 1714 1995 m -16 X s 1698 1988 m 15 Y s 1743 1995 m 17 X s 1760 1988 m 15 Y s 1776 2000 m -16 X s 1760 1992 m 15 Y
 s 1805 2000 m 17 X s 1822 1992 m 15 Y s 1838 1993 m -16 X s 1822 1986 m 15 Y s 1867 1993 m 17 X s 1884 1986 m 15 Y s 1900 1990 m -16 X s 1884 1982 m 15 Y s 1929 1990 m 17 X s 1946 1982 m 15 Y s 1962 1980 m -16 X s 1946 1973 m 15 Y s 1991 1980 m 16 X
 s 2007 1973 m 15 Y s 2024 1998 m -17 X s 2007 1990 m 15 Y s 2053 1998 m 16 X s 2069 1990 m 15 Y s black 0.6 0.6 0 c 3 lw 366 2072 428 2049 489 2046 551 2072 613 2072 675 2034 737 2043 799 2047 861 2035 923 2038 985 2035 1047 2030 1109 2022 1171 2022
 1233 2022 1295 2014 1357 2016 1419 2006 1481 2003 1543 2007 1605 2003 1667 2000 1729 1995 1791 2000 1853 1993 1915 1990 1977 1980 2038 1998 28 { m24} R 6 lw 0 0.8 0 c 351 2072 m -16 X s 335 2064 m 8 Y s 380 2072 m 17 X s 397 2064 m 8 Y s 366 2057 m
 -60 Y s 358 1997 m 15 X s 413 2033 m -16 X s 397 2025 m 15 Y s 442 2033 m 17 X s 459 2025 m 15 Y s 428 2048 m s 420 2048 m 15 X s 428 2018 m -10 Y s 420 2008 m 15 X s 475 2072 m -16 X s 459 2064 m 8 Y s 504 2072 m 16 X s 520 2064 m 8 Y s 537 2041 m
 -17 X s 520 2034 m 15 Y s 566 2041 m 16 X s 582 2034 m 15 Y s 551 2056 m 4 Y s 544 2060 m 15 X s 551 2027 m -34 Y s 544 1993 m 15 X s 599 2072 m -17 X s 582 2064 m 8 Y s 628 2072 m 16 X s 644 2064 m 8 Y s 613 2057 m -127 Y s 606 1930 m 15 X s 661
 2047 m -17 X s 644 2039 m 15 Y s 690 2047 m 16 X s 706 2039 m 15 Y s 675 2062 m s 668 2062 m 15 X s 675 2032 m -25 Y s 668 2007 m 15 X s 722 2072 m -16 X s 706 2064 m 8 Y s 752 2072 m 16 X s 768 2064 m 8 Y s 737 2057 m -25 Y s 730 2032 m 15 X s 784
 2072 m -16 X s 768 2064 m 8 Y s 814 2072 m 16 X s 830 2064 m 8 Y s 799 2057 m -18 Y s 792 2039 m 15 X s 846 2043 m -16 X s 830 2036 m 15 Y s 876 2043 m 16 X s 892 2036 m 15 Y s 908 2039 m -16 X s 892 2031 m 15 Y s 938 2039 m 16 X s 954 2031 m 15 Y s
 970 2044 m -16 X s 954 2036 m 15 Y s 1000 2044 m 16 X s 1016 2036 m 15 Y s 1032 2041 m -16 X s 1016 2034 m 15 Y s 1062 2041 m 16 X s 1078 2034 m 15 Y s 1094 2037 m -16 X s 1078 2029 m 15 Y s 1124 2037 m 16 X s 1140 2029 m 15 Y s 1156 2031 m -16 X s
 1140 2024 m 15 Y s 1186 2031 m 16 X s 1202 2024 m 15 Y s 1218 2034 m -16 X s 1202 2026 m 15 Y s 1248 2034 m 16 X s 1264 2026 m 15 Y s 1280 2028 m -16 X s 1264 2020 m 15 Y s 1310 2028 m 16 X s 1326 2020 m 15 Y s 1342 2028 m -16 X s 1326 2021 m 15 Y s
 1372 2028 m 16 X s 1388 2021 m 15 Y s 1404 2023 m -16 X s 1388 2015 m 15 Y s 1434 2023 m 16 X s 1450 2015 m 15 Y s 1466 2018 m -16 X s 1450 2011 m 14 Y s 1496 2018 m 16 X s 1512 2011 m 14 Y s 1528 2022 m -16 X s 1512 2015 m 15 Y s 1558 2022 m 16 X s
 1574 2015 m 15 Y s 1590 2017 m -16 X s 1574 2010 m 15 Y s 1620 2017 m 16 X s 1636 2010 m 15 Y s 1652 2021 m -16 X s 1636 2014 m 15 Y s 1682 2021 m 16 X s 1698 2014 m 15 Y s 1714 2013 m -16 X s 1698 2005 m 15 Y s 1743 2013 m 17 X s 1760 2005 m 15 Y s
 1776 2019 m -16 X s 1760 2011 m 15 Y s 1805 2019 m 17 X s 1822 2011 m 15 Y s 1838 1999 m -16 X s 1822 1991 m 15 Y s 1867 1999 m 17 X s 1884 1991 m 15 Y s 1900 1982 m -16 X s 1884 1974 m 15 Y s 1929 1982 m 17 X s 1946 1974 m 15 Y s 1962 2015 m -16 X
 s 1946 2008 m 15 Y s 1991 2015 m 16 X s 2007 2008 m 15 Y s 2024 2008 m -17 X s 2007 2001 m 15 Y s 2053 2008 m 16 X s 2069 2001 m 15 Y s black 0 0.8 0 c 3 lw 366 2072 428 2033 489 2072 551 2041 613 2072 675 2047 737 2072 799 2072 861 2043 923 2039
 985 2044 1047 2041 1109 2037 1171 2031 1233 2034 1295 2028 1357 2028 1419 2023 1481 2018 1543 2022 1605 2017 1667 2021 1729 2013 1791 2019 1853 1999 1915 1982 1977 2015 2038 2008 28 { m25} R 6 lw 0.8 0 0 c 0.8 0.6 0 c 0.6 0 0.6 c 0.6 0.6 0 c 0 0 0.8
 c 0 0.8 0 c 0 0.6 0.6 c black 0.8 0 0 c black 0.8 0 0 c
 gsave  2268 2238 0 0 C 1018.99 711.44 t 0 r /Helvetica findfont 85.2246 sf 0 0 m (Layer 1) show NC gr  3 lw 964 734 m20 6 lw black 0.8 0.6 0 c black 0.8 0.6 0 c
 gsave  2268 2238 0 0 C 1504.4 711.44 t 0 r /Helvetica findfont 85.2246 sf 0 0 m (Disk 1) show NC gr  3 lw 1449 734 m29 6 lw black 0.6 0 0.6 c black 0.6 0 0.6 c
 gsave  2268 2238 0 0 C 1018.99 603.983 t 0 r /Helvetica findfont 85.2246 sf 0 0 m (Layer 2) show NC gr  3 lw 964 627 m21 6 lw black 0.6 0.6 0 c black 0.6 0.6 0 c
 gsave  2268 2238 0 0 C 1504.4 603.983 t 0 r /Helvetica findfont 85.2246 sf 0 0 m (Disk 2) show NC gr  3 lw 1449 627 m24 6 lw black 0 0 0.8 c black 0 0 0.8 c
 gsave  2268 2238 0 0 C 1018.99 496.526 t 0 r /Helvetica findfont 85.2246 sf 0 0 m (Layer 3) show NC gr  3 lw 964 519 m22 6 lw black 0 0.8 0 c black 0 0.8 0 c
 gsave  2268 2238 0 0 C 1504.4 496.526 t 0 r /Helvetica findfont 85.2246 sf 0 0 m (Disk 3) show NC gr  3 lw 1449 519 m25 6 lw black 0 0.6 0.6 c black 0 0.6 0.6 c
 gsave  2268 2238 0 0 C 1018.99 389.069 t 0 r /Helvetica findfont 85.2246 sf 0 0 m (Layer 4) show NC gr  3 lw 964 412 m23 6 lw black
 gsave  2268 2238 0 0 C 611.394 2119.5 t 0 r /Helvetica-Oblique findfont 85.2246 sf 0 0 m (Preliminary 2018) show NC gr 
 gsave  2268 2238 0 0 C 333.488 2119.5 t 0 r /Helvetica-Bold findfont 103.752 sf 0 0 m (CMS ) show NC gr 
 gsave  2268 2238 0 0 C 1863.83 2112.09 t 0 r /Helvetica findfont 85.2246 sf 0 0 m (=13 TeV) show NC gr 
 gsave  2268 2238 0 0 C 1823.07 2112.09 t 0 r /Helvetica findfont 85.2246 sf 0 0 m (s) show NC gr  1793 2160 m 12 -52 d s 3 lw 1805 2108 m 7 78 d s 1812 2186 m 52 X s
 gr  gr showpage
end
%%EOF
