%!PS-Adobe-2.0 EPSF-2.0
%%BoundingBox:  0 0 567 543
%%Title: /home/tav/cern/projects/PilotBlade/forApproval/4TimingY.eps: c1
%%Creator: ROOT Version 6.04/16
%%CreationDate: Thu May 11 14:35:38 2017
%%DocumentNeededResources: ProcSet (FontSetInit)
%%EndComments
%%BeginProlog
80 dict begin
/s {stroke} def /l {lineto} def /m {moveto} def /t {translate} def
/r {rotate} def /rl {roll}  def /R {repeat} def
/d {rlineto} def /rm {rmoveto} def /gr {grestore} def /f {eofill} def
/c {setrgbcolor} def /black {0 setgray} def /sd {setdash} def
/cl {closepath} def /sf {scalefont setfont} def /lw {setlinewidth} def
/box {m dup 0 exch d exch 0 d 0 exch neg d cl} def
/NC{systemdict begin initclip end}def/C{NC box clip newpath}def
/bl {box s} def /bf {gsave box gsave f grestore 1 lw [] 0 sd s grestore} def /Y { 0 exch d} def /X { 0 d} def 
/K {{pop pop 0 moveto} exch kshow} bind def
/ita {/ang 15 def gsave [1 0 ang dup sin exch cos div 1 0 0] concat} def 
/mp {newpath /y exch def /x exch def} def
/side {[w .77 mul w .23 mul] .385 w mul sd w 0 l currentpoint t -144 r} def
/mr {mp x y w2 0 360 arc} def /m24 {mr s} def /m20 {mr f} def
/mb {mp x y w2 add m w2 neg 0 d 0 w neg d w 0 d 0 w d cl} def
/mt {mp x y w2 add m w2 neg w neg d w 0 d cl} def
/m21 {mb f} def /m25 {mb s} def /m22 {mt f} def /m26{mt s} def
/m23 {mp x y w2 sub m w2 w d w neg 0 d cl f} def
/m27 {mp x y w2 add m w3 neg w2 neg d w3 w2 neg d w3 w2 d cl s} def
/m28 {mp x w2 sub y w2 sub w3 add m w3 0 d  0 w3 neg d w3 0 d 0 w3 d w3 0 d  0 w3 d w3 neg 0 d 0 w3 d w3 neg 0 d 0 w3 neg d w3 neg 0 d cl s } def
/m29 {mp gsave x w2 sub y w2 add w3 sub m currentpoint t 4 {side} repeat cl fill gr} def
/m30 {mp gsave x w2 sub y w2 add w3 sub m currentpoint t 4 {side} repeat cl s gr} def
/m31 {mp x y w2 sub m 0 w d x w2 sub y m w 0 d x w2 sub y w2 add m w w neg d x w2 sub y w2 sub m w w d s} def
/m32 {mp x y w2 sub m w2 w d w neg 0 d cl s} def
/m33 {mp x y w2 add m w3 neg w2 neg d w3 w2 neg d w3 w2 d cl f} def
/m34 {mp x w2 sub y w2 sub w3 add m w3 0 d  0 w3 neg d w3 0 d 0 w3 d w3 0 d  0 w3 d w3 neg 0 d 0 w3 d w3 neg 0 d 0 w3 neg d w3 neg 0 d cl f } def
/m2 {mp x y w2 sub m 0 w d x w2 sub y m w 0 d s} def
/m5 {mp x w2 sub y w2 sub m w w d x w2 sub y w2 add m w w neg d s} def
%%IncludeResource: ProcSet (FontSetInit)
%%IncludeResource: font Times-Roman
%%IncludeResource: font Times-Italic
%%IncludeResource: font Times-Bold
%%IncludeResource: font Times-BoldItalic
%%IncludeResource: font Helvetica
%%IncludeResource: font Helvetica-Oblique
%%IncludeResource: font Helvetica-Bold
%%IncludeResource: font Helvetica-BoldOblique
%%IncludeResource: font Courier
%%IncludeResource: font Courier-Oblique
%%IncludeResource: font Courier-Bold
%%IncludeResource: font Courier-BoldOblique
%%IncludeResource: font Symbol
%%IncludeResource: font ZapfDingbats
/reEncode {exch findfont dup length dict begin {1 index /FID eq  {pop pop} {def} ifelse } forall /Encoding exch def currentdict end dup /FontName get exch definefont pop } def [/Times-Bold /Times-Italic /Times-BoldItalic /Helvetica /Helvetica-Oblique
 /Helvetica-Bold /Helvetica-BoldOblique /Courier /Courier-Oblique /Courier-Bold /Courier-BoldOblique /Times-Roman /AvantGarde-Book /AvantGarde-BookOblique /AvantGarde-Demi /AvantGarde-DemiOblique /Bookman-Demi /Bookman-DemiItalic /Bookman-Light
 /Bookman-LightItalic /Helvetica-Narrow /Helvetica-Narrow-Bold /Helvetica-Narrow-BoldOblique /Helvetica-Narrow-Oblique /NewCenturySchlbk-Roman /NewCenturySchlbk-Bold /NewCenturySchlbk-BoldItalic /NewCenturySchlbk-Italic /Palatino-Bold
 /Palatino-BoldItalic /Palatino-Italic /Palatino-Roman ] {ISOLatin1Encoding reEncode } forall
%%EndProlog
%%BeginSetup
%%EndSetup
newpath  gsave  .25 .25 scale  gsave  0 0 t black[  ] 0 sd 3 lw 1 1 1 c 2268 2173 0 0 bf black 1 1 1 c 1814 1739 227 217 bf black 1814 1739 227 217 bl 1 1 1 c 1814 1739 227 217 bf black 1814 1739 227 217 bl 1 1 1 c black 227 229 m 22 X -12 Y 44 X 42
 Y 22 X -30 Y 22 X 6 Y 45 X -6 Y 22 X 24 Y 22 X -24 Y 22 X 12 Y 22 X -6 Y 22 X -12 Y 22 X 24 Y 23 X -6 Y 44 X 12 Y 22 X 42 Y 22 X -60 Y 22 X 60 Y 22 X -30 Y 22 X 6 Y 45 X 12 Y 22 X 12 Y 22 X -24 Y 22 X -12 Y 22 X 61 Y 22 X -67 Y 22 X 49 Y 22 X -7 Y
 23 X -42 Y 22 X 61 Y 22 X -25 Y 22 X 19 Y 22 X 24 Y 22 X 18 Y 22 X -24 Y 22 X 12 Y 23 X 18 Y 22 X -36 Y 22 X 66 Y 22 X 12 Y 22 X -6 Y 22 X -18 Y 22 X -24 Y 22 X -24 Y 23 X 84 Y 22 X -30 Y 22 X 12 Y 22 X 24 Y 22 X -6 Y 22 X -36 Y 22 X -30 Y 22 X 126
 Y 23 X -30 Y 44 X -36 Y 22 X 102 Y 22 X -120 Y 22 X -12 Y 22 X 6 Y 22 X 30 Y 23 X -6 Y 22 X -12 Y 22 X 6 Y 22 X -54 Y 22 X 42 Y 22 X -97 Y 22 X 6 Y 22 X -30 Y 23 X 18 Y 22 X -24 Y 22 X 61 Y 22 X -31 Y 22 X -12 Y 22 X 12 Y 22 X -36 Y 22 X -18 Y 23 X
 18 Y 22 X -24 Y 22 X 24 Y 22 X s 227 217 m 1814 X s
 gsave  2268 2173 0 0 C 1850.58 79.6355 t 0 r /Helvetica findfont 72.0512 sf 0 0 m (y [cm]) show NC gr 
 gsave  2268 2173 0 0 C 1805.07 79.6355 t 0 r /Symbol findfont 72.0512 sf 0 0 m (D) show NC gr  230 269 m -52 Y s 276 243 m -26 Y s 321 243 m -26 Y s 366 243 m -26 Y s 411 243 m -26 Y s 456 269 m -52 Y s 501 243 m -26 Y s 546 243 m -26 Y s 592 243 m
 -26 Y s 637 243 m -26 Y s 682 269 m -52 Y s 727 243 m -26 Y s 772 243 m -26 Y s 817 243 m -26 Y s 862 243 m -26 Y s 908 269 m -52 Y s 953 243 m -26 Y s 998 243 m -26 Y s 1043 243 m -26 Y s 1088 243 m -26 Y s 1133 269 m -52 Y s 1179 243 m -26 Y s
 1224 243 m -26 Y s 1269 243 m -26 Y s 1314 243 m -26 Y s 1359 269 m -52 Y s 1404 243 m -26 Y s 1449 243 m -26 Y s 1495 243 m -26 Y s 1540 243 m -26 Y s 1585 269 m -52 Y s 1630 243 m -26 Y s 1675 243 m -26 Y s 1720 243 m -26 Y s 1766 243 m -26 Y s
 1811 269 m -52 Y s 1856 243 m -26 Y s 1901 243 m -26 Y s 1946 243 m -26 Y s 1991 243 m -26 Y s 2036 269 m -52 Y s 230 269 m -52 Y s 2036 269 m -52 Y s
 gsave  2268 2173 0 0 C 227.53 147.895 t 0 r /Helvetica findfont 72.0512 sf 0 0 m (6) show NC gr 
 gsave  2268 2173 0 0 C 185.816 147.895 t 0 r /Symbol findfont 72.0512 sf 0 0 m (-) show NC gr 
 gsave  2268 2173 0 0 C 455.06 147.895 t 0 r /Helvetica findfont 72.0512 sf 0 0 m (5) show NC gr 
 gsave  2268 2173 0 0 C 413.346 147.895 t 0 r /Symbol findfont 72.0512 sf 0 0 m (-) show NC gr 
 gsave  2268 2173 0 0 C 678.798 147.895 t 0 r /Helvetica findfont 72.0512 sf 0 0 m (4) show NC gr 
 gsave  2268 2173 0 0 C 637.084 147.895 t 0 r /Symbol findfont 72.0512 sf 0 0 m (-) show NC gr 
 gsave  2268 2173 0 0 C 906.328 147.895 t 0 r /Helvetica findfont 72.0512 sf 0 0 m (3) show NC gr 
 gsave  2268 2173 0 0 C 864.614 147.895 t 0 r /Symbol findfont 72.0512 sf 0 0 m (-) show NC gr 
 gsave  2268 2173 0 0 C 1130.07 147.895 t 0 r /Helvetica findfont 72.0512 sf 0 0 m (2) show NC gr 
 gsave  2268 2173 0 0 C 1088.35 147.895 t 0 r /Symbol findfont 72.0512 sf 0 0 m (-) show NC gr 
 gsave  2268 2173 0 0 C 1361.39 147.895 t 0 r /Helvetica findfont 72.0512 sf 0 0 m (1) show NC gr 
 gsave  2268 2173 0 0 C 1323.47 147.895 t 0 r /Symbol findfont 72.0512 sf 0 0 m (-) show NC gr 
 gsave  2268 2173 0 0 C 1562.37 147.895 t 0 r /Helvetica findfont 72.0512 sf 0 0 m (0) show NC gr 
 gsave  2268 2173 0 0 C 1793.7 147.895 t 0 r /Helvetica findfont 72.0512 sf 0 0 m (1) show NC gr 
 gsave  2268 2173 0 0 C 2017.43 147.895 t 0 r /Helvetica findfont 72.0512 sf 0 0 m (2) show NC gr  227 217 m 1739 Y s
 gsave  2268 2173 0 0 C 125.142 1797.49 t 90 r /Helvetica findfont 72.0512 sf 0 0 m (Yield) show NC gr  281 217 m -54 X s 254 277 m -27 X s 254 338 m -27 X s 254 398 m -27 X s 254 458 m -27 X s 281 518 m -54 X s 254 578 m -27 X s 254 638 m -27 X s
 254 698 m -27 X s 254 759 m -27 X s 281 819 m -54 X s 254 879 m -27 X s 254 939 m -27 X s 254 999 m -27 X s 254 1059 m -27 X s 281 1120 m -54 X s 254 1180 m -27 X s 254 1240 m -27 X s 254 1300 m -27 X s 254 1360 m -27 X s 281 1420 m -54 X s 254 1480
 m -27 X s 254 1541 m -27 X s 254 1601 m -27 X s 254 1661 m -27 X s 281 1721 m -54 X s 281 1721 m -54 X s 254 1781 m -27 X s 254 1841 m -27 X s 254 1901 m -27 X s
 gsave  2268 2173 0 0 C 174.44 193.401 t 0 r /Helvetica findfont 72.0512 sf 0 0 m (0) show NC gr 
 gsave  2268 2173 0 0 C 132.726 492.982 t 0 r /Helvetica findfont 72.0512 sf 0 0 m (50) show NC gr 
 gsave  2268 2173 0 0 C 94.8042 792.563 t 0 r /Helvetica findfont 72.0512 sf 0 0 m (100) show NC gr 
 gsave  2268 2173 0 0 C 94.8042 1095.94 t 0 r /Helvetica findfont 72.0512 sf 0 0 m (150) show NC gr 
 gsave  2268 2173 0 0 C 94.8042 1395.52 t 0 r /Helvetica findfont 72.0512 sf 0 0 m (200) show NC gr 
 gsave  2268 2173 0 0 C 94.8042 1695.1 t 0 r /Helvetica findfont 72.0512 sf 0 0 m (250) show NC gr  1 0 0 c 1 1 1 c black 1 0 0 c 227 217 m 177 X 6 Y 22 X -6 Y 66 X 6 Y 22 X -6 Y 244 X 6 Y 22 X -6 Y 155 X 6 Y 22 X -6 Y 22 X 6 Y 22 X -6 Y 111 X 12 Y
 66 X 6 Y 22 X -18 Y 22 X 6 Y 22 X -6 Y 45 X 12 Y 22 X 6 Y 22 X -18 Y 22 X 12 Y 44 X -6 Y 22 X 12 Y 23 X -12 Y 44 X 6 Y 22 X -6 Y 22 X 12 Y 22 X 48 Y 22 X 1029 Y 22 X -1083 Y 23 X -12 Y 22 X 6 Y 22 X -6 Y 110 X 6 Y 23 X -6 Y 243 X s 0 1 0 c 1 1 1 c
 black 0 1 0 c 227 217 m 221 X 6 Y 22 X -6 Y 67 X 6 Y 44 X -6 Y 22 X 6 Y 22 X -6 Y 22 X 6 Y 22 X -6 Y 67 X 12 Y 22 X -12 Y 22 X 6 Y 22 X -6 Y 22 X 6 Y 22 X 12 Y 44 X -18 Y 23 X 30 Y 22 X -18 Y 44 X 6 Y 22 X -12 Y 22 X -6 Y 22 X 6 Y 22 X 36 Y 23 X -42
 Y 22 X 12 Y 66 X -6 Y 22 X 18 Y 22 X -6 Y 22 X -6 Y 23 X 6 Y 22 X -12 Y 22 X 6 Y 22 X 6 Y 22 X -12 Y 22 X 12 Y 22 X -12 Y 45 X 12 Y 22 X 6 Y 22 X 12 Y 22 X -24 Y 22 X 12 Y 22 X 6 Y 22 X 12 Y 22 X -30 Y 23 X 18 Y 22 X -12 Y 22 X -6 Y 44 X 12 Y 22 X
 -18 Y 22 X 30 Y 22 X -12 Y 23 X -18 Y 22 X 12 Y 22 X -12 Y 44 X 6 Y 22 X -12 Y 44 X 6 Y 23 X -6 Y 66 X s 0 0 1 c 1 1 1 c black 0 0 1 c 227 217 m 199 X 6 Y 22 X -6 Y 66 X 6 Y 23 X -6 Y 88 X 12 Y 22 X -6 Y 22 X -6 Y 45 X 6 Y 22 X -6 Y 22 X 6 Y 22 X 6
 Y 22 X -12 Y 22 X 6 Y 22 X -6 Y 22 X 6 Y 22 X 6 Y 67 X 12 Y 22 X -12 Y 22 X -6 Y 22 X -6 Y 22 X 6 Y 22 X 6 Y 23 X 12 Y 44 X -12 Y 22 X 6 Y 22 X 6 Y 44 X -18 Y 45 X 6 Y 22 X 18 Y 22 X -18 Y 22 X 18 Y 22 X -12 Y 22 X 6 Y 22 X 6 Y 22 X -6 Y 23 X 12 Y
 22 X -24 Y 22 X 24 Y 22 X -6 Y 22 X 36 Y 22 X -30 Y 22 X 18 Y 22 X -48 Y 23 X 36 Y 22 X -12 Y 22 X 6 Y 22 X -12 Y 22 X -12 Y 22 X -12 Y 22 X 18 Y 22 X -12 Y 45 X -6 Y 44 X 6 Y 44 X 6 Y 22 X -12 Y 22 X 6 Y 23 X -6 Y 22 X 6 Y 44 X -6 Y s 1 1 0 c 1 1 1
 c black 1 1 0 c 227 217 m 177 X 6 Y 22 X -6 Y 88 X 6 Y 23 X -6 Y 44 X 6 Y 22 X -6 Y 22 X 6 Y 22 X -6 Y 22 X 12 Y 22 X -6 Y 23 X -6 Y 22 X 12 Y 22 X 6 Y 22 X -18 Y 22 X 12 Y 22 X -6 Y 22 X 6 Y 22 X -6 Y 89 X -6 Y 22 X 6 Y 66 X 18 Y 22 X -24 Y 23 X 36
 Y 22 X -18 Y 22 X 6 Y 66 X -24 Y 22 X 18 Y 22 X 12 Y 23 X -24 Y 22 X 12 Y 22 X 12 Y 22 X -12 Y 66 X 12 Y 22 X 6 Y 23 X -24 Y 22 X 6 Y 44 X 12 Y 22 X -6 Y 66 X 6 Y 23 X -18 Y 22 X 12 Y 22 X 6 Y 22 X -12 Y 22 X -6 Y 22 X -6 Y 22 X 6 Y 22 X 6 Y 23 X
 -18 Y 88 X 6 Y 22 X -6 Y 22 X 18 Y 22 X -18 Y 89 X s 1 0 1 c 1 1 1 c black 1 0 1 c 227 217 m 66 X 6 Y 22 X -6 Y 45 X 6 Y 22 X -6 Y 88 X 6 Y 22 X -6 Y 22 X 12 Y 23 X -12 Y 88 X 12 Y 22 X -6 Y 22 X 6 Y 22 X -6 Y 23 X 6 Y 22 X -12 Y 22 X 12 Y 22 X 6 Y
 22 X -6 Y 44 X -12 Y 22 X 12 Y 22 X -6 Y 23 X 12 Y 22 X -6 Y 22 X 6 Y 22 X -6 Y 22 X 6 Y 22 X -6 Y 22 X 18 Y 22 X -12 Y 23 X -6 Y 22 X 12 Y 22 X 6 Y 22 X 6 Y 22 X -18 Y 22 X 6 Y 22 X -6 Y 45 X -12 Y 22 X 18 Y 22 X 6 Y 22 X -12 Y 22 X 18 Y 22 X 12 Y
 22 X -12 Y 22 X -12 Y 23 X 12 Y 22 X -18 Y 22 X 12 Y 22 X -6 Y 22 X 36 Y 22 X -42 Y 22 X 42 Y 22 X -48 Y 23 X 18 Y 22 X -12 Y 44 X -12 Y 22 X 42 Y 44 X -36 Y 22 X -6 Y 23 X 12 Y 22 X -12 Y 22 X 12 Y 22 X -18 Y 22 X 18 Y 22 X -18 Y 22 X 6 Y 45 X -6 Y
 66 X s 1 1 1 c black
 gsave  2268 2173 0 0 C 398.178 2085.69 t 0 r /Helvetica findfont 49.2982 sf 0 0 m (Expected hit to nearest cluster distance on BmO_D3_BLD10_PNL1) show NC gr 
 gsave  2268 2173 0 0 C 500.566 1975.72 t 0 r /Helvetica-Oblique findfont 79.6355 sf 0 0 m (Preliminary 2016) show NC gr 
 gsave  2268 2173 0 0 C 227.53 1975.72 t 0 r /Helvetica-Bold findfont 102.389 sf 0 0 m (CMS ) show NC gr  1 1 1 c 773 528 338 1323 bf 338 1323 m 773 X s 1111 1323 m 528 Y s 1111 1851 m -773 X s 338 1851 m -528 Y s black
 gsave  2268 2173 0 0 C 356.464 1797.49 t 0 r /Helvetica findfont 60.6747 sf 0 0 m (Timing setups) show NC gr 
 gsave  2268 2173 0 0 C 530.904 1721.64 t 0 r /Helvetica findfont 60.6747 sf 0 0 m (\255100 ns) show NC gr  1 1 1 c 367 1711 m 135 X 53 Y -135 X f 1 1 0 c 6 lw 367 1738 m 135 X s black
 gsave  2268 2173 0 0 C 530.904 1645.8 t 0 r /Helvetica findfont 60.6747 sf 0 0 m (\25575 ns) show NC gr  1 1 1 c 3 lw 367 1636 m 135 X 53 Y -135 X f 6 lw 0 1 0 c 367 1662 m 135 X s black
 gsave  2268 2173 0 0 C 530.904 1573.75 t 0 r /Helvetica findfont 60.6747 sf 0 0 m (\25550 ns) show NC gr  1 1 1 c 3 lw 367 1561 m 135 X 52 Y -135 X f 6 lw black 367 1587 m 135 X s
 gsave  2268 2173 0 0 C 530.904 1497.91 t 0 r /Helvetica findfont 60.6747 sf 0 0 m (\25525 ns) show NC gr  1 1 1 c 3 lw 367 1485 m 135 X 53 Y -135 X f 6 lw 1 0 0 c 367 1512 m 135 X s black
 gsave  2268 2173 0 0 C 530.904 1422.06 t 0 r /Helvetica findfont 60.6747 sf 0 0 m (+0 ns) show NC gr  1 1 1 c 3 lw 367 1410 m 135 X 53 Y -135 X f 6 lw 0 0 1 c 367 1436 m 135 X s black
 gsave  2268 2173 0 0 C 530.904 1346.22 t 0 r /Helvetica findfont 60.6747 sf 0 0 m (+25 ns) show NC gr  1 1 1 c 3 lw 367 1335 m 135 X 52 Y -135 X f 6 lw 0 1 1 c 367 1361 m 135 X s
 gr  gr showpage
end
%%EOF
